Name,Precondition,Objective,Test Script - Step,Test Script - Expected Result,Test Script (Plain Text),Folder,Status,Priority,Component,Labels,Owner,Estimated Time,Coverage
Kiểm tra giao diện tổng thể,,,1. Kiểm tra icon và tên của ứng dụng trên màn hình điện thoại,1. Icon và tên của màn hình hiển thị đầy đủ,,,,,,,,,
,,,"2. Kiểm tra bố cục giao diện, lỗi chính tả, ngữ pháp, cấu trúc câu","2. Bố cục:
- Bố cục hợp lý dễ sử dụng, không có lỗi chính tả, ngữ pháp, cấu trúc câu.
- Các label có độ dài, rộng và khoảng cách bằng nhau, không xô lệch
- Các label sử dụng cùng 1 loại font, cỡ chữ, căn lề trái
",,,,,,,,,
,,,3. Kiểm tra dữ liệu hiển thị trên màn hình,3. Dữ liệu hiển thị trên màn hình phải có nghĩa và thân thiện với người dùng,,,,,,,,,
Kiểm tra các thành phần trên màn hình,,,"1. Mở ứng dụng
2. Kiểm tra các thành phần trên màn hình","2. Hiển thị màn Detail gồm các thành phần:
- Cart items:
+ Air Quality
+ UV Index
+ Sunrise
+ Wind
+ Rainfall
+ Feel Like
+ Humidity
+ Visibility
+ Pressure.",,,,,,,,,
Validate Air Quality,,,1. Kiểm tra giới hạn của thanh progress,1. Giá trị AQI trong khoảng 0-500 và được chia thành....mức,,,,,,,,,
,,,2. Kiểm tra hoạt động của thanh progress,2. Chỉ số thay đổi tương ứng với vị trí chọn,,,,,,,,,
,,,"3. Kiểm tra hiển thị khi click chọn ""See more""",3.  Link đến biểu đồ chi tiết thay đổi với chú thích các chỉ số đó,,,,,,,,,
Validate UV Index,,,1. Kiểm tra giới hạn của thanh progress,,,,,,,,,,
,,,2. Kiểm tra hoạt động của thanh progress,2. Hiển thị chỉ số UV tương ứng với vị trí được chọn,,,,,,,,,
Validate Sunrise,,,1. Kiểm tra hoạt động của khung vị trí mặt trời tại các thời điểm,1. Hiển thị vị trí mặt trời tương ứng với từng thời điểm,,,,,,,,,
Validate Wind,,,1. Kiểm tra hoạt động của la bàn,"1. Hiển thị hướng gió, tốc độ gió của vị trí đang xem",,,,,,,,,